Project 1: Wrangling, Exploration, Visualization
…
# Here I use 2 variables from my data set to create a new
# dataset using mutate
data %>% mutate(TempDiff = `Maximum Temperature` - `Minimum Temperature`)

## # A tibble: 3,272  22
##    Date   Time  artistName trackName  msPlayed `Maximum Temper `Minimum Temper
##    <chr>  <chr> <chr>      <chr>         <dbl>            <dbl>            <dbl>
##  1 2021- 17:1 The Kid L STAY (wit   141805             95.6             73.8
##  2 2021- 17:1 Sia        Genius (f   213706             95.6             73.8
##  3 2021- 17:2 6LACK      One Way (   241546             95.6             73.8
##  4 2021- 17:2 Rihanna    Needed Me    191600             95.6             73.8
##  5 2021- 17:2 Taylor Sw Back To D      938             95.6             73.8
##  6 2021- 17:2 Julia Mic 17           179547             95.6             73.8
##  7 2021- 17:3 Jesse & J Espacio s   129194             95.6             73.8
##  8 2021- 17:3 Noah Kahan False Con   143829             95.6             73.8
##  9 2021- 17:3 Valley     You          147605             95.6             73.8
## 10 2021- 17:3 RL Grime   UCLA           8362             95.6             73.8
## #  with 3,262 more rows, and 15 more variables: Temperature <dbl>,
## #   Wind Chill <lgl>, Heat Index <dbl>, Precipitation <dbl>, Snow <dbl>,
## #   Snow Depth <dbl>, Wind Speed <dbl>, Wind Direction <dbl>, Wind Gust <dbl>,
## #   Visibility <dbl>, Cloud Cover <dbl>, Relative Humidity <dbl>,
## #   Conditions <chr>, Name <chr>, TempDiff <dbl>

# Here I use str_replace_all
data$Time %>% str_replace_all(":00", "nice")

##   [1] "17:15nice"  "17:19nice"  "17:23nice"  "17:26nice"  "17:29nice" 
##   [6] "17:29nice"  "17:32nice"  "17:35nice"  "17:37nice"  "17:37nice" 
##  [11] "17:41nice"  "17:43nice"  "17:45nice"  "17:48nice"  "17:49nice" 
##  [16] "17:52nice"  "17:57nice"  "18nicenice" "18:03nice"  "18:06nice" 
##  [21] "18:07nice"  "18:07nice"  "18:10nice"  "18:13nice"  "18:17nice" 
##  [26] "18:20nice"  "18:21nice"  "18:25nice"  "18:26nice"  "20:12nice" 
##  [31] "20:12nice"  "20:17nice"  "20:21nice"  "20:24nice"  "20:28nice" 
##  [36] "20:32nice"  "20:35nice"  "20:38nice"  "20:42nice"  "20:43nice" 
##  [41] "21:19nice"  "21:20nice"  "21:23nice"  "21:26nice"  "23:46nice" 
##  [46] "23:46nice"  "23:52nice"  "00nicenice" "00:25nice"  "00:25nice" 
##  [51] "00:25nice"  "00:25nice"  "00:26nice"  "00:26nice"  "00:26nice" 
##  [56] "00:26nice"  "00:26nice"  "00:26nice"  "00:26nice"  "00:26nice" 
##  [61] "00:26nice"  "00:26nice"  "00:26nice"  "00:26nice"  "00:26nice" 
##  [66] "00:26nice"  "00:26nice"  "00:26nice"  "00:26nice"  "00:26nice" 
##  [71] "00:30nice"  "00:34nice"  "00:38nice"  "00:42nice"  "00:45nice" 
##  [76] "01:43nice"  "01:46nice"  "01:46nice"  "01:46nice"  "01:50nice" 
##  [81] "01:51nice"  "01:53nice"  "01:57nice"  "02nicenice" "02:03nice" 
##  [86] "02:03nice"  "12:23nice"  "12:26nice"  "12:29nice"  "12:33nice" 
##  [91] "12:36nice"  "12:38nice"  "12:42nice"  "12:45nice"  "12:46nice" 
##  [96] "12:48nice"  "12:48nice"  "12:51nice"  "12:53nice"  "12:56nice" 
##  [ reached getOption("max.print") -- omitted 3172 entries ]
…
